…
data_heat_map
```

```
## # A tibble: 874 x 7
##    country start_date end_date   total_deaths expected_deaths excess_deaths
##    <chr>   <date>     <date>            <dbl>           <dbl>         <dbl>
##  1 Austria 2019-12-30 2020-01-05         1611           1785.      -174.   
##  2 Austria 2020-01-06 2020-01-12         1702           1840.      -138.   
##  3 Austria 2020-01-13 2020-01-19         1797           1797.         0.262
##  4 Austria 2020-01-20 2020-01-26         1779           1761.        18.1  
##  5 Austria 2020-01-27 2020-02-02         1947           1849.        98.4  
##  6 Austria 2020-02-03 2020-02-09         1681           1819.      -138.   
##  7 Austria 2020-02-10 2020-02-16         1721           1806.       -85.1  
##  8 Austria 2020-02-17 2020-02-23         1718           1813.       -95.2  
##  9 Austria 2020-02-24 2020-03-01         1768           1826.       -57.9  
## 10 Austria 2020-03-02 2020-03-08         1744           1764.       -19.9  
## # ... with 864 more rows, and 1 more variable: dev_from_expected <dbl>
```
…
data_heat_map_uk
```

```
## # A tibble: 648 x 7
##    region start_date end_date   total_deaths expected_deaths excess_deaths
##    <chr>  <date>     <date>            <dbl>           <dbl>         <dbl>
##  1 East   2019-12-28 2020-01-03         1162           1258.        -95.8 
##  2 East   2020-01-04 2020-01-10         1573           1512.         61.2 
##  3 East   2020-01-11 2020-01-17         1457           1466.         -8.51
##  4 East   2020-01-18 2020-01-24         1410           1430.        -19.8 
##  5 East   2020-01-25 2020-01-31         1286           1331.        -45.0 
##  6 East   2020-02-01 2020-02-07         1259           1311.        -51.5 
##  7 East   2020-02-08 2020-02-14         1172           1242.        -69.8 
##  8 East   2020-02-15 2020-02-21         1167           1251.        -83.7 
##  9 East   2020-02-22 2020-02-28         1115           1218.       -103.  
## 10 East   2020-02-29 2020-03-06         1149           1239.        -89.8 
## # ... with 638 more rows, and 1 more variable: dev_from_expected <dbl>
```
…
